<?xml version="1.0" encoding="UTF-8"?>
<ModuleFile xmlns:xsi="http://www.w3.org/2001/XMLSchema-instance">
	<UiMod name="ManualScenarioRefresh" version="1.0" date="11/30/2010" >

		<Author name="Varonth" email="villana@gmx.net" />
		<Description text="Disables the automatic update of the ScenarioSummaryWindow, and adds a refresh button" />
	
    <VersionSettings gameVersion="1.4.0" windowsVersion="1.0" savedVariablesVersion="1.0" />
	
    <Dependencies>
		<Dependency name="EA_ScenarioSummaryWindow" />
    </Dependencies>
        
		<Files>
			<File name="ManualScenarioRefresh.lua" />
			<File name="ManualScenarioRefresh.xml" />
		</Files>
		
		<OnInitialize>
			<CallFunction name="ScenarioRefresh.Initialize" />
		</OnInitialize>
		<OnUpdate/>
		<OnShutdown/>
        
        <WARInfo>
    <Categories>
        <Category name="SYSTEM" />
        <Category name="OTHER" />
    </Categories>
    <Careers>
        <Career name="BLACKGUARD" />
        <Career name="WITCH_ELF" />
        <Career name="DISCIPLE" />
        <Career name="SORCERER" />
        <Career name="IRON_BREAKER" />
        <Career name="SLAYER" />
        <Career name="RUNE_PRIEST" />
        <Career name="ENGINEER" />
        <Career name="BLACK_ORC" />
        <Career name="CHOPPA" />
        <Career name="SHAMAN" />
        <Career name="SQUIG_HERDER" />
        <Career name="WITCH_HUNTER" />
        <Career name="KNIGHT" />
        <Career name="BRIGHT_WIZARD" />
        <Career name="WARRIOR_PRIEST" />
        <Career name="CHOSEN" />
        <Career name="MARAUDER" />
        <Career name="ZEALOT" />
        <Career name="MAGUS" />
        <Career name="SWORDMASTER" />
        <Career name="SHADOW_WARRIOR" />
        <Career name="WHITE_LION" />
        <Career name="ARCHMAGE" />
    </Careers>
</WARInfo>

		
	</UiMod>
</ModuleFile>
